challenges/hardware/analyser/challenge/analyser.vcd
$version Generated by Wokwi.com $end
$date Mon, 17 Feb 2025 20:39:09 GMT $end
$timescale 1ns $end
$scope module logic $end
$var wire 1 ! D0 $end
$var wire 1 " D1 $end
$var wire 1 # D2 $end
$var wire 1 $ D3 $end
$var wire 1 % D4 $end
$var wire 1 & D5 $end
$var wire 1 ' D6 $end
$upscope $end
$enddefinitions $end
#0
0!
#0
0"
#0
0#
#0
0$
#0
0%
#0
0&
#0
0'
#0
1"
#206000
1!
#231687
1&
#235312
1$
#2000273687
0!
#2000325687
1!
#2000377687
0!
#2000429687
1!
#2000481687
0!
#2000507687
1!
#2000537812
0!
#2000563812
1!
#2000589812
0!
#2000641812
1!
#2000667812
0!
#2000693812
1!
#2000745812
0!
#2000771812
1!
#2000801937
0!
#2000853937
1!
#2000879937
0!
#2000931937
1!
#2001009937
0!
#2001035937
1!
#2001066062
0!
#2001092062
1!
#2001144062
0!
#2001196062
1!
#2001274062
0!
#2001300062
1!
#2001330187
0!
#2001408187
1!
#2001434187
0!
#2001460187
1!
#2001538187
0!
#2001564187
1!
#2001594437
0!
#2001750437
1!
#2001776437
0!
#2001828437
1!
#2001858687
0!
#2001910687
1!
#2001962687
0!
#2002092687
1!
#2002122937
0!
#2002148937
1!
#2002174937
0!
#2002200937
1!
#2002226937
0!
#2002278937
1!
#2002304937
0!
#2002356937
1!
#2002387062
0!
#2002465062
1!
#2002491062
0!
#2002517062
1!
#2002569062
0!
#2002621062
1!
#2002651312
0!
#2002677312
1!
#2002755312
0!
#2002807312
1!
#2002833312
0!
#2002885312
1!
#2002915562
0!
#2002967562
1!
#2003097562
0!
#2003149562
1!
#2003179687
0!
#2003231687
1!
#2003283687
0!
#2003309687
1!
#2003335687
0!
#2003413687
1!
#2003443937
0!
#2003469937
1!
#2003495937
0!
#2003677937
1!
#2003708187
0!
#2003734187
1!
#2003786187
0!
#2003838187
1!
#2003864187
0!
#2003942187
1!
#2003972437
0!
#2004024437
1!
#2004102437
0!
#2004128437
1!
#2004154437
0!
#2004206437
1!
#2004236562
0!
#2004262562
1!
#2004288562
0!
#2004470562
1!
#2004501125
0!
#2004527125
1!
#2004553125
0!
#2004579124
1!
#2004683125
0!
#2004735124
1!
#2004765374
0!
#2004843375
1!
#2004947375
0!
#2004999375
1!
#2005029625
0!
#2005081624
1!
#2005133625
0!
#2005185625
1!
#2005237625
0!
#2005263625
1!
#2005293749
0!
#2005449750
1!
#2005501750
0!
#2005527750
1!
#2005558000
0!
#2005610000
1!
#2005636000
0!
#2005688000
1!
#2005739999
0!
#2005792000
1!
#2005822250
0!
#2005848250
1!
#2005900249
0!
#2005952250
1!
#2006004250
0!
#2006056249
1!
#2006086500
0!
#2006112500
1!
#2006138500
0!
#2006164500
1!
#2006216499
0!
#2006320500
1!
#2006350625
0!
#2006402625
1!
#2006428624
0!
#2006454625
1!
#2006480625
0!
#2006584625
1!
#4000523000
1#
#4000523000
1%
#4000523125
0%
#4000523249
0#
#4000523249
1%
#4000523375
0%
#4000523500
1#
#4000523500
1%
#4000523624
0%
#4000523750
0#
#4000523750
1%
#4000523875
0%
#4000524000
1%
#4000524125
0%
#4000524250
1#
#4000524250
1%
#4000524375
0%
#4000524500
1%
#4000524624
0%
#4000524750
1%
#4000524875
0%
#4100574750
0&
#4100579749
0$
#4100583812
1&
#4100588812
1$
#4100593812
0$
#4100593812
0&
#4100598812
1$
#4100603812
0$
#4100608812
1$
#4100613812
0$
#4100618812
1$
#4100623812
0$
#4100628812
1$
#4100633812
0$
#4100633812
1&
#4100638812
1$
#4100643812
0$
#4100643812
0&
#4100648812
1$
#4100653812
0$
#4100658812
1$
#4100663812
0$
#4100663812
1&
#4100668812
1$
#4100673812
0$
#4100678062
0&
#4100683062
1$
#4100688062
1&
#4202088812
1'
#4202088812
0#
#4203112812
0'
#4204128812
1'
#4205152812
0'
#4206168812
1'
#4207192812
0'
#4208208812
1'
#4209232812
0'
#4210248812
1'
#4211272812
0'
#4212288812
1'
#4213312812
0'
#4214328812
1'
#4215352812
0'
#4216368812
1'
#4217392812
0'
#4218408812
1'
#4219432812
0'
#4220448812
1'
#4221472812
0'
#4222488812
1'
#4223512812
0'
#4224528812
1'
#4225552812
0'
#4226568812
1'
#4227592812
0'
#4228608812
1'
#4229632812
0'
#4230648812
1'
#4231672812
0'
#4232688812
1'
#4233712812
0'
#4234728812
1'
#4235752812
0'
#4236768812
1'
#4237792812
0'
#4238808812
1'
#4239832812
0'
#4240848812
1'
#4241872812
0'
#4242888812
1'
#4243912812
0'
#4244928812
1'
#4245952812
0'
#4246968812
1'
#4247992812
0'
#4249008812
1'
#4250032812
0'
#4251048812
1'
#4252072812
0'
#4253088812
1'
#4254112812
0'
#4255128812
1'
#4256152812
0'
#4257168812
1'
#4258192812
0'
#4259208812
1'
#4260232812
0'
#4261248812
1'
#4262272812
0'
#4263288812
1'
#4264312812
0'
#4265328812
1'
#4266352812
0'
#4267368812
1'
#4268392812
0'
#4269408812
1'
#4270432812
0'
#4271448812
1'
#4272472812
0'
#4273488812
1'
#4274512812
0'
#4275528812
1'
#4276552812
0'
#4277568812
1'
#4278592812
0'
#4279608812
1'
#4280632812
0'
#4281648812
1'
#4282672812
0'
#4283688812
1'
#4284712812
0'
#4285728812
1'
#4286752812
0'
#4287768812
1'
#4288792812
0'
#4289808812
1'
#4290832812
0'
#4291848812
1'
#4292872812
0'
#4293888812
1'
#4294912812
0'
#4295928812
1'
#4296952812
0'
#4297968812
1'
#4298992812
0'
#4300008812
1'
#4301032812
0'
#4302048812
1'
#4303072812
0'
#4304088812
1'
#4305112812
0'
#4306128812
1'
#4307152812
0'
#4308168812
1'
#4309192812
0'
#4310208812
1'
#4311232812
0'
#4312248812
1'
#4313272812
0'
#4314288812
1'
#4315312812
0'
#4316328812
1'
#4317352812
0'
#4318368812
1'
#4319392812
0'
#4320408812
1'
#4321432812
0'
#4322448812
1'
#4323472812
0'
#4324488812
1'
#4325512812
0'
#4326528812
1'
#4327552812
0'
#4328568812
1'
#4329592812
0'
#4330608812
1'
#4331632812
0'
#4332648812
1'
#4333672812
0'
#4334688812
1'
#4335712812
0'
#4336728812
1'
#4337752812
0'
#4338768812
1'
#4339792812
0'
#4340808812
1'
#4341832812
0'
#4342848812
1'
#4343872812
0'
#4344888812
1'
#4345912812
0'
#4346928812
1'
#4347952812
0'
#4348968812
1'
#4349992812
0'
#4351008812
1'
#4352032812
0'
#4353048812
1'
#4354072812
0'
#4355088812
1'
#4356112812
0'
#4357128812
1'
#4358152812
0'
#4359168812
1'
#4360192812
0'
#4361208812
1'
#4362232812
0'
#4363248812
1'
#4364272812
0'
#4365288812
1'
#4366312812
0'
#4367328812
1'
#4368352812
0'
#4369368812
1'
#4370392812
0'
#4371408812
1'
#4372432812
0'
#4373448812
1'
#4374472812
0'
#4375488812
1'
#4376512812
0'
#4377528812
1'
#4378552812
0'
#4379568812
1'
#4380592812
0'
#4381608812
1'
#4382632812
0'
#4383648812
1'
#4384672812
0'
#4385688812
1'
#4386712812
0'
#4387728812
1'
#4388752812
0'
#4389768812
1'
#4390792812
0'
#4391808812
1'
#4392832812
0'
#4393848812
1'
#4394872812
0'
#4395888812
1'
#4396912812
0'
#4397928812
1'
#4398952812
0'
#4399968812
1'
#4400992812
0'
#4402008812
1'
#4403032812
0'
#4404048812
1'
#4405072812
0'
#4406088812
1'
#4407112812
0'
#4408128812
1'
#4409152812
0'
#4410168812
1'
#4411192812
0'
#4412208812
1'
#4413232812
0'
#4414248812
1'
#4415272812
0'
#4416288812
1'
#4417312812
0'
#4418328812
1'
#4419352812
0'
#4420368812
1'
#4421392812
0'
#4422408812
1'
#4423432812
0'
#4424448812
1'
#4425472812
0'
#4426488812
1'
#4427512812
0'
#4428528812
1'
#4429552812
0'
#4430568812
1'
#4431592812
0'
#4432608812
1'
#4433632812
0'
#4434648812
1'
#4435672812
0'
#4436688812
1'
#4437712812
0'
#4438728812
1'
#4439752812
0'
#4440768812
1'
#4441792812
0'
#4442808812
1'
#4443832812
0'
#4444848812
1'
#4445872812
0'
#4446888812
1'
#4447912812
0'
#4448928812
1'
#4449952812
0'
#4450968812
1'
#4451992812
0'
#4453008812
1'
#4454032812
0'
#4455048812
1'
#4456072812
0'
#4457088812
1'
#4458112812
0'
#4459128812
1'
#4460152812
0'
#4461168812
1'
#4462192812
0'
#4463208812
1'
#4464232812
0'
#4465248812
1'
#4466272812
0'
#4467288812
1'
#4468312812
0'
#4469328812
1'
#4470352812
0'
#4471368812
1'
#4472392812
0'
#4473408812
1'
#4474432812
0'
#4475448812
1'
#4476472812
0'
#4477488812
1'
#4478512812
0'
#4479528812
1'
#4480552812
0'
#4481568812
1'
#4482592812
0'
#4483608812
1'
#4484632812
0'
#4485648812
1'
#4486672812
0'
#4487688812
1'
#4488712812
0'
#4489728812
1'
#4490752812
0'
#4491768812
1'
#4492792812
0'
#4493808812
1'
#4494832812
0'
#4495848812
1'
#4496872812
0'
#4497888812
1'
#4498912812
0'
#4499928812
1'
#4500730250
0'
#4500731812
1'
#4800832812
0'
#4802104812
1'
#4802616812
0'
#4804144812
1'
#4804656812
0'
#4806184812
1'
#4806696812
0'
#4808224812
1'
#4808736812
0'
#4810264812
1'
#4810776812
0'
#4812304812
1'
#4812816812
0'
#4814344812
1'
#4814856812
0'
#4816384812
1'
#4816896812
0'
#4818424812
1'
#4818936812
0'
#4820464812
1'
#4820976812
0'
#4822504812
1'
#4823016812
0'
#4824544812
1'
#4825056812
0'
#4826584812
1'
#4827096812
0'
#4828624812
1'
#4829136812
0'
#4830664812
1'
#4831176812
0'
#4832704812
1'
#4833216812
0'
#4834744812
1'
#4835256812
0'
#4836784812
1'
#4837296812
0'
#4838824812
1'
#4839336812
0'
#4840864812
1'
#4841376812
0'
#4842904812
1'
#4843416812
0'
#4844944812
1'
#4845456812
0'
#4846984812
1'
#4847496812
0'
#4849024812
1'
#4849536812
0'
#4851064812
1'
#4851576812
0'
#4853104812
1'
#4853616812
0'
#4855144812
1'
#4855656812
0'
#4857184812
1'
#4857696812
0'
#4859224812
1'
#4859736812
0'
#4861264812
1'
#4861776812
0'
#4863304812
1'
#4863816812
0'
#4865344812
1'
#4865856812
0'
#4867384812
1'
#4867896812
0'
#4869424812
1'
#4869936812
0'
#4871464812
1'
#4871976812
0'
#4873504812
1'
#4874016812
0'
#4875544812
1'
#4876056812
0'
#4877584812
1'
#4878096812
0'
#4879624812
1'
#4880136812
0'
#4881664812
1'
#4882176812
0'
#4883704812
1'
#4884216812
0'
#4885744812
1'
#4886256812
0'
#4887784812
1'
#4888296812
0'
#4889824812
1'
#4890336812
0'
#4891864812
1'
#4892376812
0'
#4893904812
1'
#4894416812
0'
#4895944812
1'
#4896456812
0'
#4897984812
1'
#4898496812
0'
#4900024812
1'
#4900536812
0'
#4902064812
1'
#4902576812
0'
#4904104812
1'
#4904616812
0'
#4906144812
1'
#4906656812
0'
#4908184812
1'
#4908696812
0'
#4910224812
1'
#4910736812
0'
#4912264812
1'
#4912776812
0'
#4914304812
1'
#4914816812
0'
#4916344812
1'
#4916856812
0'
#4918384812
1'
#4918896812
0'
#4920424812
1'
#4920936812
0'
#4922464812
1'
#4922976812
0'
#4924504812
1'
#4925016812
0'
#4926544812
1'
#4927056812
0'
#4928584812
1'
#4929096812
0'
#4930624812
1'
#4931136812
0'
#4932664812
1'
#4933176812
0'
#4934704812
1'
#4935216812
0'
#4936744812
1'
#4937256812
0'
#4938784812
1'
#4939296812
0'
#4940824812
1'
#4941336812
0'
#4942864812
1'
#4943376812
0'
#4944904812
1'
#4945416812
0'
#4946944812
1'
#4947456812
0'
#4948984812
1'
#4949496812
0'
#4951024812
1'
#4951536812
0'
#4953064812
1'
#4953576812
0'
#4955104812
1'
#4955616812
0'
#4957144812
1'
#4957656812
0'
#4959184812
1'
#4959696812
0'
#4961224812
1'
#4961736812
0'
#4963264812
1'
#4963776812
0'
#4965304812
1'
#4965816812
0'
#4967344812
1'
#4967856812
0'
#4969384812
1'
#4969896812
0'
#4971424812
1'
#4971936812
0'
#4973464812
1'
#4973976812
0'
#4975504812
1'
#4976016812
0'
#4977544812
1'
#4978056812
0'
#4979584812
1'
#4980096812
0'
#4981624812
1'
#4982136812
0'
#4983664812
1'
#4984176812
0'
#4985704812
1'
#4986216812
0'
#4987744812
1'
#4988256812
0'
#4989784812
1'
#4990296812
0'
#4991824812
1'
#4992336812
0'
#4993864812
1'
#4994376812
0'
#4995904812
1'
#4996416812
0'
#4997944812
1'
#4998456812
0'
#4999984812
1'
#5000496812
0'
#5002024812
1'
#5002536812
0'
#5004064812
1'
#5004576812
0'
#5006104812
1'
#5006616812
0'
#5008144812
1'
#5008656812
0'
#5010184812
1'
#5010696812
0'
#5012224812
1'
#5012736812
0'
#5014264812
1'
#5014776812
0'
#5016304812
1'
#5016816812
0'
#5018344812
1'
#5018856812
0'
#5020384812
1'
#5020896812
0'
#5022424812
1'
#5022936812
0'
#5024464812
1'
#5024976812
0'
#5026504812
1'
#5027016812
0'
#5028544812
1'
#5029056812
0'
#5030584812
1'
#5031096812
0'
#5032624812
1'
#5033136812
0'
#5034664812
1'
#5035176812
0'
#5036704812
1'
#5037216812
0'
#5038744812
1'
#5039256812
0'
#5040784812
1'
#5041296812
0'
#5042824812
1'
#5043336812
0'
#5044864812
1'
#5045376812
0'
#5046904812
1'
#5047416812
0'
#5048944812
1'
#5049456812
0'
#5050984812
1'
#5051496812
0'
#5053024812
1'
#5053536812
0'
#5055064812
1'
#5055576812
0'
#5057104812
1'
#5057616812
0'
#5059144812
1'
#5059656812
0'
#5061184812
1'
#5061696812
0'
#5063224812
1'
#5063736812
0'
#5065264812
1'
#5065776812
0'
#5067304812
1'
#5067816812
0'
#5069344812
1'
#5069856812
0'
#5071384812
1'
#5071896812
0'
#5073424812
1'
#5073936812
0'
#5075464812
1'
#5075976812
0'
#5077504812
1'
#5078016812
0'
#5079544812
1'
#5080056812
0'
#5081584812
1'
#5082096812
0'
#5083624812
1'
#5084136812
0'
#5085664812
1'
#5086176812
0'
#5087704812
1'
#5088216812
0'
#5089744812
1'
#5090256812
0'
#5091784812
1'
#5092296812
0'
#5093824812
1'
#5094336812
0'
#5095864812
1'
#5096376812
0'
#5097904812
1'
#5098416812
0'
#5099944812
1'
#5100456812
0'
#5100762750
1'
#5100764187
0'
#5400794625
0!
#5400846625
1!
#5400898625
0!
#5400950625
1!
#5401002625
0!
#5401028625
1!
#5401058750
0!
#5401084750
1!
#5401110750
0!
#5401162750
1!
#5401188750
0!
#5401214750
1!
#5401266750
0!
#5401292750
1!
#5401322875
0!
#5401374875
1!
#5401400875
0!
#5401452875
1!
#5401530875
0!
#5401556875
1!
#5401587000
0!
#5401613000
1!
#5401665000
0!
#5401717000
1!
#5401795000
0!
#5401821000
1!
#5401851125
0!
#5401929125
1!
#5401955125
0!
#5401981125
1!
#5402059125
0!
#5402085125
1!
#5402115375
0!
#5402271375
1!
#5402297375
0!
#5402349375
1!
#5402379625
0!
#5402431625
1!
#5402483625
0!
#5402613625
1!
#5402643875
0!
#5402669875
1!
#5402695875
0!
#5402721875
1!
#5402747875
0!
#5402799875
1!
#5402825875
0!
#5402877875
1!
#5402908000
0!
#5402986000
1!
#5403012000
0!
#5403038000
1!
#5403090000
0!
#5403142000
1!
#5403172250
0!
#5403198250
1!
#5403276250
0!
#5403328250
1!
#5403354250
0!
#5403406250
1!
#5403436500
0!
#5403488500
1!
#5403618500
0!
#5403670500
1!
#5403700750
0!
#5403752750
1!
#5403804750
0!
#5403830750
1!
#5403856750
0!
#5403934750
1!
#5403964875
0!
#5403990875
1!
#5404016875
0!
#5404198875
1!
#5404229125
0!
#5404255125
1!
#5404307125
0!
#5404359125
1!
#5404385125
0!
#5404463125
1!
#5404493375
0!
#5404545375
1!
#5404623375
0!
#5404649375
1!
#5404675375
0!
#5404727375
1!
#5404757625
0!
#5404783625
1!
#5404809625
0!
#5404991625
1!
#5405021750
0!
#5405047750
1!
#5405073750
0!
#5405099750
1!
#5405203750
0!
#5405255750
1!
#5405286000
0!
#5405364000
1!
#5405468000
0!
#5405520000
1!
#5405550250
0!
#5405602250
1!
#5405654250
0!
#5405706250
1!
#5405758250
0!
#5405784250
1!
#5405814500
0!
#5405970500
1!
#5406022500
0!
#5406048500
1!
#5406078937
0!
#5406130937
1!
#5406156937
0!
#5406208937
1!
#5406260937
0!
#5406312937
1!
#5406343187
0!
#5406369187
1!
#5406421187
0!
#5406473187
1!
#5406525187
0!
#5406577187
1!
#5406607437
0!
#5406633437
1!
#5406659437
0!
#5406685437
1!
#5406737437
0!
#5406841437
1!
#5406871687
0!
#5406923687
1!
#5406949687
0!
#5406975687
1!
#5407001687
0!
#5407105687
1!
#7401046562
1#
#7401046562
1%
#7401046687
0%
#7401046812
1%
#7401046937
0%
#7401047062
1%
#7401047187
0%
#7401047312
1%
#7401047437
0%
#7401047562
0#
#7401047562
1%
#7401047687
0%
#7401047812
1%
#7401047937
0%
#7401048062
1%
#7401048187
0%
#7401048312
1#
#7401048312
1%
#7401048437
0%
#7501056687
0#
#7501056687
1%
#7501056812
0%
#7501056937
1#
#7501056937
1%
#7501057062
0%
#7501057187
0#
#7501057187
1%
#7501057312
0%
#7501057437
1%
#7501057562
0%
#7501057687
1#
#7501057687
1%
#7501057812
0%
#7501057937
0#
#7501057937
1%
#7501058062
0%
#7501058187
1%
#7501058312
0%
#7501058437
1#
#7501058437
1%
#7501058562
0%
#7501059500
0#
#7501059500
1%
#7501059625
0%
#7501059750
1#
#7501059750
1%
#7501059875
0%
#7501060000
0#
#7501060000
1%
#7501060125
0%
#7501060250
1%
#7501060375
0%
#7501060500
1%
#7501060625
0%
#7501060750
1#
#7501060750
1%
#7501060875
0%
#7501061000
0#
#7501061000
1%
#7501061125
0%
#7501061250
1%
#7501061375
0%
#7501062312
1%
#7501062437
0%
#7501062562
1#
#7501062562
1%
#7501062687
0%
#7501062812
0#
#7501062812
1%
#7501062937
0%
#7501063062
1%
#7501063187
0%
#7501063312
1#
#7501063312
1%
#7501063437
0%
#7501063562
0#
#7501063562
1%
#7501063687
0%
#7501063812
1#
#7501063812
1%
#7501063937
0%
#7501064062
1%
#7501064187
0%
#7501065125
0#
#7501065125
1%
#7501065250
0%
#7501065375
1#
#7501065375
1%
#7501065500
0%
#7501065625
0#
#7501065625
1%
#7501065750
0%
#7501065875
1#
#7501065875
1%
#7501066000
0%
#7501066125
0#
#7501066125
1%
#7501066250
0%
#7501066375
1#
#7501066375
1%
#7501066500
0%
#7501066625
1%
#7501066750
0%
#7501066875
1%
#7501067000
0%
#7501067937
0#
#7501067937
1%
#7501068062
0%
#7501068187
1#
#7501068187
1%
#7501068312
0%
#7501068437
0#
#7501068437
1%
#7501068562
0%
#7501068687
1%
#7501068812
0%
#7501068937
1#
#7501068937
1%
#7501069062
0%
#7501069187
0#
#7501069187
1%
#7501069312
0%
#7501069437
1%
#7501069562
0%
#7501069687
1%
#7501069812
0%
#7501070750
1%
#7501070875
0%
#7501071000
1#
#7501071000
1%
#7501071125
0%
#7501071250
0#
#7501071250
1%
#7501071375
0%
#7501071500
1#
#7501071500
1%
#7501071625
0%
#7501071750
1%
#7501071875
0%
#7501072000
0#
#7501072000
1%
#7501072125
0%
#7501072250
1%
#7501072375
0%
#7501072500
1#
#7501072500
1%
#7501072625
0%
#7501073562
0#
#7501073562
1%
#7501073687
0%
#7501073812
1%
#7501073937
0%
#7501074062
1#
#7501074062
1%
#7501074187
0%
#7501074312
1%
#7501074437
0%
#7501074562
0#
#7501074562
1%
#7501074687
0%
#7501074812
1#
#7501074812
1%
#7501074937
0%
#7501075062
1%
#7501075187
0%
#7501075312
1%
#7501075437
0%
#7501076375
0#
#7501076375
1%
#7501076500
0%
#7501076625
1#
#7501076625
1%
#7501076750
0%
#7501076875
1%
#7501077000
0%
#7501077125
1%
#7501077250
0%
#7501077375
1%
#7501077500
0%
#7501077625
1%
#7501077750
0%
#7501077875
0#
#7501077875
1%
#7501078000
0%
#7501078125
1#
#7501078125
1%
#7501078250
0%
#7501117125
0&
#7501122125
0$
#7501126187
1&
#7501131187
1$
#7501136187
0$
#7501136187
0&
#7501141187
1$
#7501146187
0$
#7501151187
1$
#7501156187
0$
#7501161187
1$
#7501166187
0$
#7501171187
1$
#7501176187
0$
#7501176187
1&
#7501181187
1$
#7501186187
0$
#7501186187
0&
#7501191187
1$
#7501196187
0$
#7501201187
1$
#7501206187
0$
#7501206187
1&
#7501211187
1$
#7501216187
0$
#7501220437
0&
#7501225437
1$
#7501230437
1&
#7602768812
1'
#7602768812
0#
#7603792812
0'
#7604808812
1'
#7605832812
0'
#7606848812
1'
#7607872812
0'
#7608888812
1'
#7609912812
0'
#7610928812
1'
#7611952812
0'
#7612968812
1'
#7613992812
0'
#7615008812
1'
#7616032812
0'
#7617048812
1'
#7618072812
0'
#7619088812
1'
#7620112812
0'
#7621128812
1'
#7622152812
0'
#7623168812
1'
#7624192812
0'
#7625208812
1'
#7626232812
0'
#7627248812
1'
#7628272812
0'
#7629288812
1'
#7630312812
0'
#7631328812
1'
#7632352812
0'
#7633368812
1'
#7634392812
0'
#7635408812
1'
#7636432812
0'
#7637448812
1'
#7638472812
0'
#7639488812
1'
#7640512812
0'
#7641528812
1'
#7642552812
0'
#7643568812
1'
#7644592812
0'
#7645608812
1'
#7646632812
0'
#7647648812
1'
#7648672812
0'
#7649688812
1'
#7650712812
0'
#7651728812
1'
#7652752812
0'
#7653768812
1'
#7654792812
0'
#7655808812
1'
#7656832812
0'
#7657848812
1'
#7658872812
0'
#7659888812
1'
#7660912812
0'
#7661928812
1'
#7662952812
0'
#7663968812
1'
#7664992812
0'
#7666008812
1'
#7667032812
0'
#7668048812
1'
#7669072812
0'
#7670088812
1'
#7671112812
0'
#7672128812
1'
#7673152812
0'
#7674168812
1'
#7675192812
0'
#7676208812
1'
#7677232812
0'
#7678248812
1'
#7679272812
0'
#7680288812
1'
#7681312812
0'
#7682328812
1'
#7683352812
0'
#7684368812
1'
#7685392812
0'
#7686408812
1'
#7687432812
0'
#7688448812
1'
#7689472812
0'
#7690488812
1'
#7691512812
0'
#7692528812
1'
#7693552812
0'
#7694568812
1'
#7695592812
0'
#7696608812
1'
#7697632812
0'
#7698648812
1'
#7699672812
0'
#7700688812
1'
#7701712812
0'
#7702728812
1'
#7703752812
0'
#7704768812
1'
#7705792812
0'
#7706808812
1'
#7707832812
0'
#7708848812
1'
#7709872812
0'
#7710888812
1'
#7711912812
0'
#7712928812
1'
#7713952812
0'
#7714968812
1'
#7715992812
0'
#7717008812
1'
#7718032812
0'
#7719048812
1'
#7720072812
0'
#7721088812
1'
#7722112812
0'
#7723128812
1'
#7724152812
0'
#7725168812
1'
#7726192812
0'
#7727208812
1'
#7728232812
0'
#7729248812
1'
#7730272812
0'
#7731288812
1'
#7732312812
0'
#7733328812
1'
#7734352812
0'
#7735368812
1'
#7736392812
0'
#7737408812
1'
#7738432812
0'
#7739448812
1'
#7740472812
0'
#7741488812
1'
#7742512812
0'
#7743528812
1'
#7744552812
0'
#7745568812
1'
#7746592812
0'
#7747608812
1'
#7748632812
0'
#7749648812
1'
#7750672812
0'
#7751688812
1'
#7752712812
0'
#7753728812
1'
#7754752812
0'
#7755768812
1'
#7756792812
0'
#7757808812
1'
#7758832812
0'
#7759848812
1'
#7760872812
0'
#7761888812
1'
#7762912812
0'
#7763928812
1'
#7764952812
0'
#7765968812
1'
#7766992812
0'
#7768008812
1'
#7769032812
0'
#7770048812
1'
#7771072812
0'
#7772088812
1'
#7773112812
0'
#7774128812
1'
#7775152812
0'
#7776168812
1'
#7777192812
0'
#7778208812
1'
#7779232812
0'
#7780248812
1'
#7781272812
0'
#7782288812
1'
#7783312812
0'
#7784328812
1'
#7785352812
0'
#7786368812
1'
#7787392812
0'
#7788408812
1'
#7789432812
0'
#7790448812
1'
#7791472812
0'
#7792488812
1'
#7793512812
0'
#7794528812
1'
#7795552812
0'
#7796568812
1'
#7797592812
0'
#7798608812
1'
#7799632812
0'
#7800648812
1'
#7801672812
0'
#7802688812
1'
#7803712812
0'
#7804728812
1'
#7805752812
0'
#7806768812
1'
#7807792812
0'
#7808808812
1'
#7809832812
0'
#7810848812
1'
#7811872812
0'
#7812888812
1'
#7813912812
0'
#7814928812
1'
#7815952812
0'
#7816968812
1'
#7817992812
0'
#7819008812
1'
#7820032812
0'
#7821048812
1'
#7822072812
0'
#7823088812
1'
#7824112812
0'
#7825128812
1'
#7826152812
0'
#7827168812
1'
#7828192812
0'
#7829208812
1'
#7830232812
0'
#7831248812
1'
#7832272812
0'
#7833288812
1'
#7834312812
0'
#7835328812
1'
#7836352812
0'
#7837368812
1'
#7838392812
0'
#7839408812
1'
#7840432812
0'
#7841448812
1'
#7842472812
0'
#7843488812
1'
#7844512812
0'
#7845528812
1'
#7846552812
0'
#7847568812
1'
#7848592812
0'
#7849608812
1'
#7850632812
0'
#7851648812
1'
#7852672812
0'
#7853688812
1'
#7854712812
0'
#7855728812
1'
#7856752812
0'
#7857768812
1'
#7858792812
0'
#7859808812
1'
#7860832812
0'
#7861848812
1'
#7862872812
0'
#7863888812
1'
#7864912812
0'
#7865928812
1'
#7866952812
0'
#7867968812
1'
#7868992812
0'
#7870008812
1'
#7871032812
0'
#7872048812
1'
#7873072812
0'
#7874088812
1'
#7875112812
0'
#7876128812
1'
#7877152812
0'
#7878168812
1'
#7879192812
0'
#7880208812
1'
#7881232812
0'
#7882248812
1'
#7883272812
0'
#7884288812
1'
#7885312812
0'
#7886328812
1'
#7887352812
0'
#7888368812
1'
#7889392812
0'
#7890408812
1'
#7891432812
0'
#7892448812
1'
#7893472812
0'
#7894488812
1'
#7895512812
0'
#7896528812
1'
#7897552812
0'
#7898568812
1'
#7899592812
0'
#7900608812
1'
#7901272812
0'
#7901274375
1'
#8201512812
0'
#8202784812
1'
#8203296812
0'
#8204824812
1'
#8205336812
0'
#8206864812
1'
#8207376812
0'
#8208904812
1'
#8209416812
0'
#8210944812
1'
#8211456812
0'
#8212984812
1'
#8213496812
0'
#8215024812
1'
#8215536812
0'
#8217064812
1'
#8217576812
0'
#8219104812
1'
#8219616812
0'
#8221144812
1'
#8221656812
0'
#8223184812
1'
#8223696812
0'
#8225224812
1'
#8225736812
0'
#8227264812
1'
#8227776812
0'
#8229304812
1'
#8229816812
0'
#8231344812
1'
#8231856812
0'
#8233384812
1'
#8233896812
0'
#8235424812
1'
#8235936812
0'
#8237464812
1'
#8237976812
0'
#8239504812
1'
#8240016812
0'
#8241544812
1'
#8242056812
0'
#8243584812
1'
#8244096812
0'
#8245624812
1'
#8246136812
0'
#8247664812
1'
#8248176812
0'
#8249704812
1'
#8250216812
0'
#8251744812
1'
#8252256812
0'
#8253784812
1'
#8254296812
0'
#8255824812
1'
#8256336812
0'
#8257864812
1'
#8258376812
0'
#8259904812
1'
#8260416812
0'
#8261944812
1'
#8262456812
0'
#8263984812
1'
#8264496812
0'
#8266024812
1'
#8266536812
0'
#8268064812
1'
#8268576812
0'
#8270104812
1'
#8270616812
0'
#8272144812
1'
#8272656812
0'
#8274184812
1'
#8274696812
0'
#8276224812
1'
#8276736812
0'
#8278264812
1'
#8278776812
0'
#8280304812
1'
#8280816812
0'
#8282344812
1'
#8282856812
0'
#8284384812
1'
#8284896812
0'
#8286424812
1'
#8286936812
0'
#8288464812
1'
#8288976812
0'
#8290504812
1'
#8291016812
0'
#8292544812
1'
#8293056812
0'
#8294584812
1'
#8295096812
0'
#8296624812
1'
#8297136812
0'
#8298664812
1'
#8299176812
0'
#8300704812
1'
#8301216812
0'
#8302744812
1'
#8303256812
0'
#8304784812
1'
#8305296812
0'
#8306824812
1'
#8307336812
0'
#8308864812
1'
#8309376812
0'
#8310904812
1'
#8311416812
0'
#8312944812
1'
#8313456812
0'
#8314984812
1'
#8315496812
0'
#8317024812
1'
#8317536812
0'
#8319064812
1'
#8319576812
0'
#8321104812
1'
#8321616812
0'
#8323144812
1'
#8323656812
0'
#8325184812
1'
#8325696812
0'
#8327224812
1'
#8327736812
0'
#8329264812
1'
#8329776812
0'
#8331304812
1'
#8331816812
0'
#8333344812
1'
#8333856812
0'
#8335384812
1'
#8335896812
0'
#8337424812
1'
#8337936812
0'
#8339464812
1'
#8339976812
0'
#8341504812
1'
#8342016812
0'
#8343544812
1'
#8344056812
0'
#8345584812
1'
#8346096812
0'
#8347624812
1'
#8348136812
0'
#8349664812
1'
#8350176812
0'
#8351704812
1'
#8352216812
0'
#8353744812
1'
#8354256812
0'
#8355784812
1'
#8356296812
0'
#8357824812
1'
#8358336812
0'
#8359864812
1'
#8360376812
0'
#8361904812
1'
#8362416812
0'
#8363944812
1'
#8364456812
0'
#8365984812
1'
#8366496812
0'
#8368024812
1'
#8368536812
0'
#8370064812
1'
#8370576812
0'
#8372104812
1'
#8372616812
0'
#8374144812
1'
#8374656812
0'
#8376184812
1'
#8376696812
0'
#8378224812
1'
#8378736812
0'
#8380264812
1'
#8380776812
0'
#8382304812
1'
#8382816812
0'
#8384344812
1'
#8384856812
0'
#8386384812
1'
#8386896812
0'
#8388424812
1'
#8388936812
0'
#8390464812
1'
#8390976812
0'
#8392504812
1'
#8393016812
0'
#8394544812
1'
#8395056812
0'
#8396584812
1'
#8397096812
0'
#8398624812
1'
#8399136812
0'
#8400664812
1'
#8401176812
0'
#8402704812
1'
#8403216812
0'
#8404744812
1'
#8405256812
0'
#8406784812
1'
#8407296812
0'
#8408824812
1'
#8409336812
0'
#8410864812
1'
#8411376812
0'
#8412904812
1'
#8413416812
0'
#8414944812
1'
#8415456812
0'
#8416984812
1'
#8417496812
0'
#8419024812
1'
#8419536812
0'
